^D:\PROJETOS VISUAL STUDIO\DESLIGAR\DEBUG\DESLIGAR.OBJ
D:\PROJETOS VISUAL STUDIO\DESLIGAR\DEBUG\DESLIGAR.EXE
D:\PROJETOS VISUAL STUDIO\DESLIGAR\DEBUG\DESLIGAR.ILK
D:\PROJETOS VISUAL STUDIO\DESLIGAR\DEBUG\DESLIGAR.PDB
